{
    "name": "GameUtility.Editor",
    "references": [
        "GUID:3dc9fea223353c44fa545b55b3982d07",
        "GUID:dafea55bbe41b6047aae7c4c31fe4cd4",
        "GUID:7a16010c2df29574995f255724cb6b6d"
    ],
    "includePlatforms": [
        "Editor"
    ],
    "excludePlatforms": [],
    "allowUnsafeCode": false,
    "overrideReferences": false,
    "precompiledReferences": [],
    "autoReferenced": true,
    "defineConstraints": [],
    "versionDefines": [],
    "noEngineReferences": false
}